{
    "KPlugin": {
        "Description": "Provides an interface for viewing variable values",
        "Description[ca@valencia]": "Proporciona una interfície per a visualitzar valors de variables",
        "Description[ca]": "Proporciona una interfície per a visualitzar valors de variables",
        "Description[eo]": "Provizas interfacon por rigardi variablovalorojn",
        "Description[es]": "Proporciona una interfaz para visualizar valores de variables",
        "Description[fr]": "Fournit une interface l'affichage des valeurs variables",
        "Description[gl]": "Fornece unha interface para ver os valores de variábeis.",
        "Description[it]": "Fornisce un'interfaccia per la visualizzazione dei valori variabili",
        "Description[ka]": "მოგაწოდებთ ინტერფეისს ცვლადის მნიშვნელობების სანახავად",
        "Description[nl]": "Levert een interface voor het bekijken van waarden van variabelen",
        "Description[sl]": "Zagotavlja vmesnik za ogled vrednosti spremenljivk",
        "Description[sv]": "Tillhandahåller ett gränssnitt för att visa variabelvärden",
        "Description[tr]": "Değişken değerlerini görüntülemek için bir arayüz sağlar",
        "Description[uk]": "Забезпечує роботу інтерфейсу для перегляду значень змінних",
        "Description[x-test]": "xxProvides an interface for viewing variable valuesxx",
        "EnabledByDefault": true,
        "License": "GPL",
        "Name": "Variable Viewer",
        "Name[bs]": "Preglednik Varijabli",
        "Name[ca@valencia]": "Visor de variables",
        "Name[ca]": "Visualitzador de variables",
        "Name[de]": "Variablenansicht",
        "Name[en_GB]": "Variable Viewer",
        "Name[eo]": "Variebla Rigardilo",
        "Name[es]": "Visor variable",
        "Name[et]": "Muutujanäitaja",
        "Name[fi]": "Muuttujakatselin",
        "Name[fr]": "Afficheur de variables",
        "Name[gl]": "Visor de variábeis",
        "Name[hu]": "Változómegjelenítő",
        "Name[it]": "Visualizzatore variabili",
        "Name[ka]": "ცვლადების მნახველი",
        "Name[km]": "កម្មវិធី​មើល​អថេរ",
        "Name[ko]": "변수 뷰어",
        "Name[mr]": "परिवर्तनीय प्रदर्शक",
        "Name[nl]": "Variabele viewer",
        "Name[pl]": "Przeglądarka zmiennych",
        "Name[pt]": "Visualizador de Variáveis",
        "Name[pt_BR]": "Visualizador de variáveis",
        "Name[sl]": "Vpogledovalnik spremenljivk",
        "Name[sv]": "Variabelvisning",
        "Name[tr]": "Değişken Görüntüleyicisi",
        "Name[uk]": "Перегляд змінних",
        "Name[x-test]": "xxVariable Viewerxx",
        "Name[zh_CN]": "变量查看器",
        "Name[zh_TW]": "變數檢視器"
    }
}
